Introducción · Comercio en América Latina
…
Hago unas modificando en los datos antemano para más fácil poder utilizarlos en los siguientes posteos.

En primer lugar, aprendo las librarías necesarias:

library(tradestatistics) #parquete de los datos
library(tidyverse) #para modificar o "tidy los datos"

Americas <- ots_countries %>%
  arrange(continent)%>%
  filter(continent == "Americas")%>%
  select(country_iso, country_name_english)

tibble(Americas)
## # A tibble: 55 x 2
##    country_iso country_name_english
##    <chr>       <chr>               
##  1 aia         Anguilla            
##  2 atg         Antigua and Barbuda 
##  3 arg         Argentina           
##  4 arb         Aruba               
##  5 bhs         Bahamas             
##  6 brb         Barbados            
##  7 blz         Belize              
##  8 bmu         Bermuda             
##  9 bol         Bolivia             
## 10 bvt         Bouvet Island       
## # … with 45 more rows
…
